11:40:06,387 Starting loading playlist...
11:40:06,392 Playlist loaded.
11:40:06,393 Total duration of playlist is: 22582 sec
INFO 11:41:59,190 Starting loading playlist...
INFO 11:41:59,194 Playlist loaded.
INFO 11:41:59,195 Total duration of playlist is: 22582 sec
INFO 17:10:12,303 Starting loading playlist...
INFO 17:10:12,306 Playlist loaded.
INFO 17:10:12,306 Total duration of playlist is: 22582 sec
INFO 17:10:12,309 
AlbumTrack [name: Not afraid artist: Eminem; duration: 235 sec; genre: Hip-hop; albumName: Recovery; albumYear: 2010]
INFO 17:10:12,310 
AlbumTrack [name: Across the stars artist: John Williams; duration: 301 sec; genre: Instrumental; albumName: Star Wars OST; albumYear: 2008]
INFO 17:10:12,311 
Podcast [name: Violin; duration: 7214 sec; genre: Instrumental artist: Vanessa Mei[Lindsie Stirling, David Garrat]]
INFO 17:10:12,311 
Podcast [name: Depression; duration: 6915 sec; genre: Pop artist: Lana Del Rey[Radiohead, The Weekend]]
INFO 17:10:12,312 
Podcast [name: Intense; duration: 7350 sec; genre: Trance artist: Armin van Burren[]]
INFO 17:10:12,312 
Sample [name: Cold wind blows artist: Eminem; duration: 30 sec; genre: Hip-hop]
INFO 17:10:12,312 
AlbumTrack [name: Across the stars artist: John Williams; duration: 301 sec; genre: Instrumental; albumName: Star Wars OST; albumYear: 2008]
INFO 17:10:12,313 
Podcast [name: Violin; duration: 7214 sec; genre: Instrumental artist: Vanessa Mei[Lindsie Stirling, David Garrat]]
INFO 17:10:12,313 
Podcast [name: Depression; duration: 6915 sec; genre: Pop artist: Lana Del Rey[Radiohead, The Weekend]]
INFO 17:10:12,314 
Podcast [name: Intense; duration: 7350 sec; genre: Trance artist: Armin van Burren[]]
INFO 17:10:12,314 
Sample [name: 99 problems artist: Jay-Z; duration: 30 sec; genre: Hip-hop]
INFO 17:10:12,314 
AlbumTrack [name: Across the stars artist: John Williams; duration: 301 sec; genre: Instrumental; albumName: Star Wars OST; albumYear: 2008]
INFO 17:10:12,315 
Podcast [name: Violin; duration: 7214 sec; genre: Instrumental artist: Vanessa Mei[Lindsie Stirling, David Garrat]]
INFO 17:10:12,315 
Podcast [name: Depression; duration: 6915 sec; genre: Pop artist: Lana Del Rey[Radiohead, The Weekend]]
INFO 17:10:12,315 
Podcast [name: Intense; duration: 7350 sec; genre: Trance artist: Armin van Burren[]]
INFO 17:10:12,315 
AlbumTrack [name: Across the stars artist: John Williams; duration: 301 sec; genre: Instrumental; albumName: Star Wars OST; albumYear: 2008]
INFO 17:10:12,316 
AlbumTrack [name: Across the stars artist: John Williams; duration: 301 sec; genre: Instrumental; albumName: Star Wars OST; albumYear: 2008]
INFO 17:10:12,316 
Podcast [name: Violin; duration: 7214 sec; genre: Instrumental artist: Vanessa Mei[Lindsie Stirling, David Garrat]]
INFO 17:10:12,316 
Podcast [name: Depression; duration: 6915 sec; genre: Pop artist: Lana Del Rey[Radiohead, The Weekend]]
INFO 17:10:12,317 
Podcast [name: Intense; duration: 7350 sec; genre: Trance artist: Armin van Burren[]]
INFO 17:10:12,317 
Podcast [name: Violin; duration: 7214 sec; genre: Instrumental artist: Vanessa Mei[Lindsie Stirling, David Garrat]]
INFO 17:10:12,317 
AlbumTrack [name: Across the stars artist: John Williams; duration: 301 sec; genre: Instrumental; albumName: Star Wars OST; albumYear: 2008]
INFO 17:10:12,318 
Podcast [name: Violin; duration: 7214 sec; genre: Instrumental artist: Vanessa Mei[Lindsie Stirling, David Garrat]]
INFO 17:10:12,318 
Podcast [name: Depression; duration: 6915 sec; genre: Pop artist: Lana Del Rey[Radiohead, The Weekend]]
INFO 17:10:12,319 
Podcast [name: Intense; duration: 7350 sec; genre: Trance artist: Armin van Burren[]]
INFO 17:10:12,319 
Sample [name: Up&Up artist: Coldplay; duration: 30 sec; genre: Pop]
INFO 17:10:12,319 
AlbumTrack [name: Across the stars artist: John Williams; duration: 301 sec; genre: Instrumental; albumName: Star Wars OST; albumYear: 2008]
INFO 17:10:12,320 
Podcast [name: Violin; duration: 7214 sec; genre: Instrumental artist: Vanessa Mei[Lindsie Stirling, David Garrat]]
INFO 17:10:12,320 
Podcast [name: Depression; duration: 6915 sec; genre: Pop artist: Lana Del Rey[Radiohead, The Weekend]]
INFO 17:10:12,321 
Podcast [name: Intense; duration: 7350 sec; genre: Trance artist: Armin van Burren[]]
INFO 17:10:12,321 
Sample [name: Voodoo Child artist: Brick+Mortar; duration: 30 sec; genre: Pop]
INFO 17:10:12,321 
AlbumTrack [name: Across the stars artist: John Williams; duration: 301 sec; genre: Instrumental; albumName: Star Wars OST; albumYear: 2008]
INFO 17:10:12,322 
Podcast [name: Violin; duration: 7214 sec; genre: Instrumental artist: Vanessa Mei[Lindsie Stirling, David Garrat]]
INFO 17:10:12,322 
Podcast [name: Depression; duration: 6915 sec; genre: Pop artist: Lana Del Rey[Radiohead, The Weekend]]
INFO 17:10:12,323 
Podcast [name: Intense; duration: 7350 sec; genre: Trance artist: Armin van Burren[]]
INFO 17:10:12,323 
Podcast [name: Depression; duration: 6915 sec; genre: Pop artist: Lana Del Rey[Radiohead, The Weekend]]
INFO 17:10:12,324 
AlbumTrack [name: Across the stars artist: John Williams; duration: 301 sec; genre: Instrumental; albumName: Star Wars OST; albumYear: 2008]
INFO 17:10:12,324 
Podcast [name: Violin; duration: 7214 sec; genre: Instrumental artist: Vanessa Mei[Lindsie Stirling, David Garrat]]
INFO 17:10:12,325 
Podcast [name: Depression; duration: 6915 sec; genre: Pop artist: Lana Del Rey[Radiohead, The Weekend]]
INFO 17:10:12,325 
Podcast [name: Intense; duration: 7350 sec; genre: Trance artist: Armin van Burren[]]
INFO 17:10:12,326 
AlbumTrack [name: Fall artist: Imagine Dragons; duration: 200 sec; genre: Pop-Rock; albumName: Smoke&Mirrors; albumYear: 2015]
INFO 17:10:12,326 
AlbumTrack [name: Across the stars artist: John Williams; duration: 301 sec; genre: Instrumental; albumName: Star Wars OST; albumYear: 2008]
INFO 17:10:12,326 
Podcast [name: Violin; duration: 7214 sec; genre: Instrumental artist: Vanessa Mei[Lindsie Stirling, David Garrat]]
INFO 17:10:12,327 
Podcast [name: Depression; duration: 6915 sec; genre: Pop artist: Lana Del Rey[Radiohead, The Weekend]]
INFO 17:10:12,327 
Podcast [name: Intense; duration: 7350 sec; genre: Trance artist: Armin van Burren[]]
INFO 17:10:12,327 
AlbumTrack [name: Centuries artist: Fall out boy; duration: 247 sec; genre: Pop-Rock; albumName: American Beauty/American Psyco; albumYear: 2010]
INFO 17:10:12,328 
AlbumTrack [name: Across the stars artist: John Williams; duration: 301 sec; genre: Instrumental; albumName: Star Wars OST; albumYear: 2008]
INFO 17:10:12,328 
Podcast [name: Violin; duration: 7214 sec; genre: Instrumental artist: Vanessa Mei[Lindsie Stirling, David Garrat]]
INFO 17:10:12,329 
Podcast [name: Depression; duration: 6915 sec; genre: Pop artist: Lana Del Rey[Radiohead, The Weekend]]
INFO 17:10:12,329 
Podcast [name: Intense; duration: 7350 sec; genre: Trance artist: Armin van Burren[]]
INFO 17:10:12,329 
Podcast [name: Intense; duration: 7350 sec; genre: Trance artist: Armin van Burren[]]
INFO 17:10:12,330 
AlbumTrack [name: Across the stars artist: John Williams; duration: 301 sec; genre: Instrumental; albumName: Star Wars OST; albumYear: 2008]
INFO 17:10:12,330 
Podcast [name: Violin; duration: 7214 sec; genre: Instrumental artist: Vanessa Mei[Lindsie Stirling, David Garrat]]
INFO 17:10:12,330 
Podcast [name: Depression; duration: 6915 sec; genre: Pop artist: Lana Del Rey[Radiohead, The Weekend]]
INFO 17:10:12,331 
Podcast [name: Intense; duration: 7350 sec; genre: Trance artist: Armin van Burren[]]
INFO 17:17:04,572 Starting loading playlist...
INFO 17:17:04,576 Playlist loaded.
INFO 17:17:04,576 Total duration of playlist is: 22582 sec
INFO 17:17:04,580 
AlbumTrack [name: Across the stars artist: John Williams; duration: 301 sec; genre: Instrumental; albumName: Star Wars OST; albumYear: 2008]
INFO 17:17:04,581 
Podcast [name: Violin; duration: 7214 sec; genre: Instrumental artist: Vanessa Mei[Lindsie Stirling, David Garrat]]
INFO 17:17:04,581 
Podcast [name: Depression; duration: 6915 sec; genre: Pop artist: Lana Del Rey[Radiohead, The Weekend]]
INFO 17:17:04,582 
Podcast [name: Intense; duration: 7350 sec; genre: Trance artist: Armin van Burren[]]
INFO 17:17:04,582 
AlbumTrack [name: Across the stars artist: John Williams; duration: 301 sec; genre: Instrumental; albumName: Star Wars OST; albumYear: 2008]
INFO 17:17:04,583 
Podcast [name: Violin; duration: 7214 sec; genre: Instrumental artist: Vanessa Mei[Lindsie Stirling, David Garrat]]
INFO 17:17:04,583 
Podcast [name: Depression; duration: 6915 sec; genre: Pop artist: Lana Del Rey[Radiohead, The Weekend]]
INFO 17:17:04,584 
Podcast [name: Intense; duration: 7350 sec; genre: Trance artist: Armin van Burren[]]
INFO 17:17:04,584 
AlbumTrack [name: Across the stars artist: John Williams; duration: 301 sec; genre: Instrumental; albumName: Star Wars OST; albumYear: 2008]
INFO 17:17:04,585 
Podcast [name: Violin; duration: 7214 sec; genre: Instrumental artist: Vanessa Mei[Lindsie Stirling, David Garrat]]
INFO 17:17:04,585 
Podcast [name: Depression; duration: 6915 sec; genre: Pop artist: Lana Del Rey[Radiohead, The Weekend]]
INFO 17:17:04,586 
Podcast [name: Intense; duration: 7350 sec; genre: Trance artist: Armin van Burren[]]
INFO 17:17:04,586 
AlbumTrack [name: Across the stars artist: John Williams; duration: 301 sec; genre: Instrumental; albumName: Star Wars OST; albumYear: 2008]
INFO 17:17:04,587 
Podcast [name: Violin; duration: 7214 sec; genre: Instrumental artist: Vanessa Mei[Lindsie Stirling, David Garrat]]
INFO 17:17:04,587 
Podcast [name: Depression; duration: 6915 sec; genre: Pop artist: Lana Del Rey[Radiohead, The Weekend]]
INFO 17:17:04,587 
Podcast [name: Intense; duration: 7350 sec; genre: Trance artist: Armin van Burren[]]
INFO 17:17:04,588 
AlbumTrack [name: Across the stars artist: John Williams; duration: 301 sec; genre: Instrumental; albumName: Star Wars OST; albumYear: 2008]
INFO 17:17:04,588 
Podcast [name: Violin; duration: 7214 sec; genre: Instrumental artist: Vanessa Mei[Lindsie Stirling, David Garrat]]
INFO 17:17:04,588 
Podcast [name: Depression; duration: 6915 sec; genre: Pop artist: Lana Del Rey[Radiohead, The Weekend]]
INFO 17:17:04,589 
Podcast [name: Intense; duration: 7350 sec; genre: Trance artist: Armin van Burren[]]
INFO 17:17:04,589 
AlbumTrack [name: Across the stars artist: John Williams; duration: 301 sec; genre: Instrumental; albumName: Star Wars OST; albumYear: 2008]
INFO 17:17:04,590 
Podcast [name: Violin; duration: 7214 sec; genre: Instrumental artist: Vanessa Mei[Lindsie Stirling, David Garrat]]
INFO 17:17:04,590 
Podcast [name: Depression; duration: 6915 sec; genre: Pop artist: Lana Del Rey[Radiohead, The Weekend]]
INFO 17:17:04,590 
Podcast [name: Intense; duration: 7350 sec; genre: Trance artist: Armin van Burren[]]
INFO 17:17:04,591 
AlbumTrack [name: Across the stars artist: John Williams; duration: 301 sec; genre: Instrumental; albumName: Star Wars OST; albumYear: 2008]
INFO 17:17:04,591 
Podcast [name: Violin; duration: 7214 sec; genre: Instrumental artist: Vanessa Mei[Lindsie Stirling, David Garrat]]
INFO 17:17:04,592 
Podcast [name: Depression; duration: 6915 sec; genre: Pop artist: Lana Del Rey[Radiohead, The Weekend]]
INFO 17:17:04,592 
Podcast [name: Intense; duration: 7350 sec; genre: Trance artist: Armin van Burren[]]
INFO 17:17:04,592 
AlbumTrack [name: Across the stars artist: John Williams; duration: 301 sec; genre: Instrumental; albumName: Star Wars OST; albumYear: 2008]
INFO 17:17:04,593 
Podcast [name: Violin; duration: 7214 sec; genre: Instrumental artist: Vanessa Mei[Lindsie Stirling, David Garrat]]
INFO 17:17:04,593 
Podcast [name: Depression; duration: 6915 sec; genre: Pop artist: Lana Del Rey[Radiohead, The Weekend]]
INFO 17:17:04,593 
Podcast [name: Intense; duration: 7350 sec; genre: Trance artist: Armin van Burren[]]
INFO 17:17:04,594 
AlbumTrack [name: Across the stars artist: John Williams; duration: 301 sec; genre: Instrumental; albumName: Star Wars OST; albumYear: 2008]
INFO 17:17:04,595 
Podcast [name: Violin; duration: 7214 sec; genre: Instrumental artist: Vanessa Mei[Lindsie Stirling, David Garrat]]
INFO 17:17:04,595 
Podcast [name: Depression; duration: 6915 sec; genre: Pop artist: Lana Del Rey[Radiohead, The Weekend]]
INFO 17:17:04,596 
Podcast [name: Intense; duration: 7350 sec; genre: Trance artist: Armin van Burren[]]
INFO 17:17:04,596 
AlbumTrack [name: Across the stars artist: John Williams; duration: 301 sec; genre: Instrumental; albumName: Star Wars OST; albumYear: 2008]
INFO 17:17:04,597 
Podcast [name: Violin; duration: 7214 sec; genre: Instrumental artist: Vanessa Mei[Lindsie Stirling, David Garrat]]
INFO 17:17:04,597 
Podcast [name: Depression; duration: 6915 sec; genre: Pop artist: Lana Del Rey[Radiohead, The Weekend]]
INFO 17:17:04,597 
Podcast [name: Intense; duration: 7350 sec; genre: Trance artist: Armin van Burren[]]
INFO 17:17:04,598 
AlbumTrack [name: Across the stars artist: John Williams; duration: 301 sec; genre: Instrumental; albumName: Star Wars OST; albumYear: 2008]
INFO 17:17:04,598 
Podcast [name: Violin; duration: 7214 sec; genre: Instrumental artist: Vanessa Mei[Lindsie Stirling, David Garrat]]
INFO 17:17:04,599 
Podcast [name: Depression; duration: 6915 sec; genre: Pop artist: Lana Del Rey[Radiohead, The Weekend]]
INFO 17:17:04,599 
Podcast [name: Intense; duration: 7350 sec; genre: Trance artist: Armin van Burren[]]
INFO 17:21:54,424 Starting loading playlist...
INFO 17:21:54,427 Playlist loaded.
INFO 17:21:54,428 Total duration of playlist is: 22582 sec
INFO 17:21:54,432 
AlbumTrack [name: Across the stars artist: John Williams; duration: 301 sec; genre: Instrumental; albumName: Star Wars OST; albumYear: 2008]
INFO 17:21:54,433 
Podcast [name: Violin; duration: 7214 sec; genre: Instrumental artist: Vanessa Mei[Lindsie Stirling, David Garrat]]
INFO 17:21:54,433 
Podcast [name: Depression; duration: 6915 sec; genre: Pop artist: Lana Del Rey[Radiohead, The Weekend]]
INFO 17:21:54,434 
Podcast [name: Intense; duration: 7350 sec; genre: Trance artist: Armin van Burren[]]
INFO 17:25:37,287 Starting loading playlist...
INFO 17:25:37,291 Playlist loaded.
INFO 17:25:37,291 Total duration of playlist is: 22582 sec
INFO 17:25:37,295 Collection is sorted by genre: 22582 sec
INFO 17:25:37,295 
AlbumTrack [name: Across the stars artist: John Williams; duration: 301 sec; genre: Instrumental; albumName: Star Wars OST; albumYear: 2008]
INFO 17:25:37,296 
Podcast [name: Violin; duration: 7214 sec; genre: Instrumental artist: Vanessa Mei[Lindsie Stirling, David Garrat]]
INFO 17:25:37,296 
Podcast [name: Depression; duration: 6915 sec; genre: Pop artist: Lana Del Rey[Radiohead, The Weekend]]
INFO 17:25:37,297 
Podcast [name: Intense; duration: 7350 sec; genre: Trance artist: Armin van Burren[]]
INFO 17:28:13,923 Starting loading playlist...
INFO 17:28:13,926 Playlist loaded.
INFO 17:28:13,926 Total duration of playlist is: 22582 sec
INFO 17:28:13,929 Collection is sorted by genre: 22582 sec
INFO 17:28:13,929 Required track is found
INFO 17:28:13,929 Required track is found
INFO 17:28:13,930 Required track is found
INFO 17:28:13,930 Required track is found
INFO 17:28:13,931 Required track is found
INFO 17:28:13,931 Required track is found
INFO 17:28:13,931 Required track is found
INFO 17:28:13,932 Required track is found
INFO 17:28:13,932 Required track is found
INFO 17:28:13,932 Required track is found
INFO 17:28:13,932 Required track is found
INFO 17:28:59,255 Starting loading playlist...
INFO 17:28:59,260 Playlist loaded.
INFO 17:28:59,260 Total duration of playlist is: 22582 sec
INFO 17:28:59,263 Collection is sorted by genre: 22582 sec
INFO 17:28:59,263 Required track is found
INFO 17:28:59,264 Required track is found
INFO 17:28:59,264 Required track is found
INFO 17:28:59,264 Required track is found
INFO 17:28:59,264 Required track is found
INFO 17:28:59,265 Required track is found
INFO 17:28:59,265 Required track is found
INFO 17:28:59,265 Required track is found
INFO 17:28:59,265 Required track is found
INFO 17:28:59,265 Required track is found
INFO 17:28:59,266 Required track is found
INFO 17:30:06,116 Starting loading playlist...
INFO 17:30:06,120 Playlist loaded.
INFO 17:30:06,121 Total duration of playlist is: 22582 sec
INFO 17:30:06,127 Collection is sorted by genre: 22582 sec
INFO 17:30:06,128 Required track is found
INFO 17:30:40,275 Starting loading playlist...
INFO 17:30:40,280 Playlist loaded.
INFO 17:30:40,280 Total duration of playlist is: 22582 sec
INFO 17:30:40,283 Collection is sorted by genre.
INFO 17:30:40,283 Required track is found
INFO 17:31:01,304 Starting loading playlist...
INFO 17:31:01,308 Playlist loaded.
INFO 17:31:01,308 Total duration of playlist is: 22582 sec
INFO 17:31:01,312 Collection is sorted by genre.
INFO 17:31:01,312 Required track is found.
INFO 17:54:06,744 Starting loading playlist...
INFO 17:54:06,747 Playlist loaded.
INFO 17:54:06,797 Total duration of playlist is: 03/00/22.582 sec
INFO 17:54:06,800 Collection is sorted by genre.
INFO 17:54:06,800 Required track is found.
INFO 17:54:42,532 Starting loading playlist...
INFO 17:54:42,538 Playlist loaded.
INFO 17:54:42,541 Total duration of playlist is: 03/00/22 sec
INFO 17:54:42,545 Collection is sorted by genre.
INFO 17:54:42,545 Required track is found.
INFO 17:55:08,255 Starting loading playlist...
INFO 17:55:08,259 Playlist loaded.
INFO 17:55:08,261 Total duration of playlist is: 03.00.22
INFO 17:55:08,264 Collection is sorted by genre.
INFO 17:55:08,264 Required track is found.
INFO 18:02:48 Starting loading playlist...
INFO 18:02:48 Playlist loaded.
INFO 18:02:48 Total duration of playlist is: 03.00.22
INFO 18:02:48 Collection is sorted by genre.
INFO 18:02:48 Required track is found.
INFO 23:56:19INFO 23:56:19INFO 23:56:19INFO 23:56:19INFO 23:56:19INFO 23:56:30 Starting loading playlist...
INFO 23:56:30 Playlist loaded.
INFO 23:56:30 Total duration of playlist is: 03.00.22
INFO 23:56:30 Collection is sorted by genre.
INFO 23:56:30 Required track is found.
INFO 00:15:52 Starting loading playlist...
INFO 00:15:52 Playlist loaded.
INFO 00:15:52 Total duration of playlist is: 03.00.22 sec
INFO 00:15:52 Collection is sorted by genre.
INFO 00:15:52 Required track is found.
INFO 00:16:26 Starting loading playlist...
INFO 00:16:26 Playlist loaded.
INFO 00:16:26 Total duration of playlist is: 03.00.22 sec
INFO 00:16:26 Collection is sorted by genre.
INFO 00:16:26 Required track is found.
INFO 00:17:09 Starting loading playlist...
INFO 00:17:09 Playlist loaded.
INFO 00:17:09 Total duration of playlist is: 03.00.22
INFO 00:17:09 Collection is sorted by genre.
INFO 00:17:09 Required tracks are found.
